%YAML 1.1
%TAG !u! tag:unity3d.com,2011:
--- !u!1045 &1
EditorBuildSettings:
  m_ObjectHideFlags: 0
  serializedVersion: 2
  m_Scenes:
  - enabled: 1
    path: Assets/Scenes/Controls.unity
    guid: e31151469f9db41bb99384b804f43c3d
  - enabled: 1
    path: Assets/Scenes/Controls_android.unity
    guid: 1095dcae63fd78149b113f966876d1ae
  - enabled: 1
    path: Assets/Plugins/Express/Tests/TapThrough/TapThrough.unity
    guid: a922fc20ab2a2ae4ebe098d801a73db1
  - enabled: 0
    path: Assets/Plugins/Express/Tests/SpeakWithChanges/Changes.unity
    guid: 35b9d6e883129d5408695713de228f3d
  - enabled: 0
    path: Assets/Plugins/Express/Tests/Android/android.unity
    guid: 28eb3660857073542b1369afdca05d42
  - enabled: 1
    path: Assets/Plugins/Express/Tests/SpeakOnHover/SpeekOnHover.unity
    guid: ea13b624a2191ed4098ad17f4c286b94
  m_configObjects: {}
